%!PS-Adobe-3.0 EPSF-3.0
%%Creator: GIMP PostScript file plugin V 1.17 by Peter Kirchgessner
%%Title: gt_campus-832.eps
%%CreationDate: Mon Feb  1 09:45:42 2016
%%DocumentData: Clean7Bit
%%LanguageLevel: 2
%%Pages: 1
%%BoundingBox: 14 14 175 143
%%EndComments
%%BeginProlog
% Use own dictionary to avoid conflicts
10 dict begin
%%EndProlog
%%Page: 1 1
% Translate for offset
14.173228346456694 14.173228346456694 translate
% Translate to begin of first scanline
0 127.9899212598425 translate
159.98740157480313 -127.9899212598425 scale
% Image geometry
160 128 8
% Transformation matrix
[ 160 0 0 128 0 0 ]
% Strings to hold RGB-samples per scanline
/rstr 160 string def
/gstr 160 string def
/bstr 160 string def
{currentfile /ASCII85Decode filter /RunLengthDecode filter rstr readstring pop}
{currentfile /ASCII85Decode filter /RunLengthDecode filter gstr readstring pop}
{currentfile /ASCII85Decode filter /RunLengthDecode filter bstr readstring pop}
true 3
%%BeginData:         4757 ASCII Bytes
colorimage
JH4X/J,~>
JH4X/J,~>
JH4X/J,~>
JH4X/J,~>
JH4X/J,~>
JH4X/J,~>
JH4X/J,~>
JH4X/J,~>
JH4X/J,~>
JH4X/J,~>
JH4X/J,~>
JH4X/J,~>
JH4X/J,~>
JH4X/J,~>
JH4X/J,~>
JH4X/J,~>
JH4X/J,~>
JH4X/J,~>
JH4X/J,~>
JH4X/J,~>
JH4X/J,~>
JH4X/J,~>
JH4X/J,~>
JH4X/J,~>
JH4X/J,~>
JH4X/J,~>
JH4X/J,~>
JH4X/J,~>
JH4X/J,~>
JH4X/J,~>
JH4X/J,~>
JH4X/J,~>
JH4X/J,~>
JH4X/J,~>
JH4X/J,~>
JH4X/J,~>
JH4X/J,~>
JH4X/J,~>
JH4X/J,~>
JH4X/J,~>
JH4X/J,~>
JH4X/J,~>
JH4X/J,~>
JH4X/J,~>
JH4X/J,~>
JH4X/J,~>
JH4X/J,~>
JH4X/J,~>
JH4X/J,~>
JH4X/J,~>
JH4X/J,~>
JH4X/J,~>
JH4X/J,~>
JH4X/J,~>
JH4X/J,~>
JH4X/J,~>
JH4X/J,~>
JH4X/J,~>
JH4X/J,~>
JH4X/J,~>
JH4X/J,~>
JH4X/J,~>
JH4X/J,~>
JH4X/J,~>
JH4X/J,~>
JH4X/J,~>
JH4X/J,~>
JH4X/J,~>
JH4X/J,~>
JH4X/J,~>
JH4X/J,~>
JH4X/J,~>
JH4X/J,~>
JH4X/J,~>
JH4X/J,~>
JH4X/J,~>
JH4X/J,~>
JH4X/J,~>
JH4X/J,~>
JH4X/J,~>
JH4X/J,~>
JH4X/J,~>
JH4X/J,~>
JH4X/J,~>
JH4X/J,~>
JH4X/J,~>
JH4X/J,~>
JH4X/J,~>
JH4X/J,~>
JH4X/J,~>
JH4X/J,~>
JH4X/J,~>
JH4X/J,~>
JH4X/J,~>
JH4X/J,~>
JH4X/J,~>
JH4X/J,~>
JH4X/J,~>
JH4X/J,~>
JH4X/J,~>
JH4X/J,~>
JH4X/J,~>
JH4X/J,~>
JH4X/J,~>
JH4X/J,~>
JH4X/J,~>
JH4X/J,~>
JH4X/J,~>
JH4X/J,~>
JH4X/J,~>
JH4X/J,~>
JH4X/J,~>
JH4X/J,~>
JH4X/J,~>
JH4X/J,~>
JH4X/J,~>
JH4X/J,~>
JH4X/J,~>
JH4X/J,~>
JH4X/J,~>
JH4X/J,~>
JH4X/J,~>
JH4X/J,~>
JH4X/J,~>
JH4X/J,~>
JH4X/J,~>
JH4X/J,~>
JH4X/J,~>
JH4X/J,~>
JH4X/J,~>
JH4X/J,~>
JH4X/J,~>
JH4X/J,~>
JH4X/J,~>
JH4X/J,~>
JH4X/J,~>
JH4X/J,~>
JH4X/J,~>
JH4X/J,~>
JH4X/J,~>
JH4X/J,~>
JH4X/J,~>
JH4X/J,~>
JH4X/J,~>
JH4X/J,~>
JH4X/J,~>
JH4X/J,~>
JH4X/J,~>
JH4X/J,~>
JH4X/J,~>
JH4X/J,~>
JH4X/J,~>
JH4X/J,~>
JH4X/J,~>
JH4X/J,~>
JH4X/J,~>
JH4X/J,~>
JH4X/J,~>
JH4X/J,~>
JH4X/J,~>
JH4X/J,~>
JH4X/J,~>
JH4X/J,~>
JH4X/J,~>
JH4X/J,~>
JH4X/J,~>
JH4X/J,~>
JH4X/J,~>
JH4X/J,~>
JH4X/J,~>
JH4X/J,~>
JH4X/J,~>
JH4X/J,~>
JH4X/J,~>
JH4X/J,~>
JH4X/J,~>
JH4X/J,~>
JH4X/J,~>
JH4X/J,~>
JH4X/J,~>
JH4X/J,~>
JH4X/J,~>
JH4X/J,~>
JH4X/J,~>
JH4X/J,~>
JH4X/J,~>
JH4X/J,~>
JH4X/J,~>
JH4X/J,~>
JH4X/J,~>
JH4X/J,~>
JH4X/J,~>
JH4X/J,~>
JH4X/J,~>
JH4X/J,~>
JH4X/J,~>
JH4X/J,~>
JH4X/J,~>
JH4X/J,~>
JH4X/J,~>
JH4X/J,~>
JH4X/J,~>
JH4X/J,~>
JH4X/J,~>
JH4X/J,~>
JH4X/J,~>
JH4X/J,~>
JH4X/J,~>
JH4X/J,~>
JH4X/J,~>
JH4X/J,~>
JH4X/J,~>
JH4X/J,~>
JH4X/J,~>
JH4X/J,~>
JH4X/J,~>
JH4X/J,~>
JH4X/J,~>
JH4X/J,~>
VZ?_r^&WZ~>
VZ?_r^&WZ~>
VZ?_r^&WZ~>
VZ?_r^&WZ~>
VZ?_r^&WZ~>
VZ?_r^&WZ~>
VZ?_r^&WZ~>
VZ?_r^&WZ~>
VZ?_r^&WZ~>
VZ?_r^&WZ~>
VZ?_r^&WZ~>
VZ?_r^&WZ~>
VuZbq^Arc~>
VuZbq^Arc~>
VuZbq^Arc~>
W;uep^]8l~>
W;uep^]8l~>
W;uep^]8l~>
WW;ho_#Su~>
WW;ho_#Su~>
WW;ho_#Su~>
WW;en_>o)~>
WW;en_>o)~>
WW;en_>o)~>
WrVhm_Z52~>
WrVhm_Z52~>
WrVhm_Z52~>
WrVhm_Z52~>
WrVhm_Z52~>
WrVhm_Z52~>
X8qnm_Z52~>
X8qnm_Z52~>
X8qnm_Z52~>
X8qnm_Z52~>
X8qnm_Z52~>
X8qnm_Z52~>
[K-@-q#L*f_>o)~>
[K-@-q#L*f_>o)~>
[K-@-q#L*f_>o)~>
[K-@-q#LHp!!)fo_>o)~>
[K-@-q#LHp!!)fo_>o)~>
[K-@-q#LHp!!)fo_>o)~>
[fHF-q#LHp!!)fo_>o)~>
[fHF-q#LHp!!)fo_>o)~>
[fHF-q#LHp!!)fo_>o)~>
\,cI,q>gQq!!)fo_>o)~>
\,cI,q>gQq!!)fo_>o)~>
\,cI,q>gQq!!)fo_>o)~>
\,cF+qZ-Zr!!)ip_#Su~>
\,cF+qZ-Zr!!)ip_#Su~>
\,cF+qZ-Zr!!)ip_#Su~>
li?n^e,]CGqZ-Zr!!)ip_#Su~>
li?n^e,]CGqZ-Zr!!)ip_#Su~>
li?n^e,]CGqZ-Zr!!)ip_#Su~>
li?k]eH#LHp]1-i_#Su~>
li?k]eH#LHp]1-i_#Su~>
li?k]eH#LHp]1-i_#Su~>
li?h\eH#LHq#L9k^]8l~>
li?h\eH#LHq#L9k^]8l~>
li?h\eH#LHq#L9k^]8l~>
li?e[ec>UIp]13k^]8l~>
li?e[ec>UIp]13k^]8l~>
li?e[ec>UIp]13k^]8l~>
li?bZf)Y^Jp]13k^]8l~>
li?bZf)Y^Jp]13k^]8l~>
li?bZf)Y^Jp]13k^]8l~>
li?\Xf`:sMp&P$j^]8l~>
li?\Xf`:sMp&P$j^]8l~>
li?\Xf`:sMp&P$j^]8l~>
li?VVgAq0Op&P$j^]8l~>
li?VVgAq0Op&P$j^]8l~>
li?VVgAq0Op&P$j^]8l~>
li?PTh#RBQp&P$j^]8l~>
li?PTh#RBQp&P$j^]8l~>
li?PTh#RBQp&P$j^]8l~>
li?PTh#RBQp&P$j^]8l~>
li?PTh#RBQp&P$j^]8l~>
li?PTh#RBQp&P$j^]8l~>
li?PTh#RBQp&P$j^]8l~>
li?PTh#RBQp&P$j^]8l~>
li?PTh#RBQp&P$j^]8l~>
li?PTh#RBQp&P'k^Arc~>
li?PTh#RBQp&P'k^Arc~>
li?PTh#RBQp&P'k^Arc~>
li?PTh#RKT!W`9#p&P'k^Arc~>
li?PTh#RKT!W`9#p&P'k^Arc~>
li?PTh#RKT!W`9#p&P'k^Arc~>
li?SUg]7BS!W`9#p&P'k^Arc~>
li?SUg]7BS!W`9#p&P'k^Arc~>
li?SUg]7BS!W`9#p&P'k^Arc~>
li?SUg]7BS!W`9#p&P'k^Arc~>
li?SUg]7BS!W`9#p&P'k^Arc~>
li?SUg]7BS!W`9#p&P'k^Arc~>
li?SUbQ.VA^Arc~>
li?SUbQ.VA^Arc~>
li?SUbQ.VA^Arc~>
li?SUbQ.VA^Arc~>
li?SUbQ.VA^Arc~>
li?SUbQ.VA^Arc~>
li?q_r;ccqaoMG@^Arc~>
li?q_r;ccqaoMG@^Arc~>
li?q_r;ccqaoMG@^Arc~>
i;iiVaT2A@^Arc~>
i;iiVaT2A@^Arc~>
i;iiVaT2A@^Arc~>
U]:Dp^Arc~>
U]:Dp^Arc~>
U]:Dp^Arc~>
JH4X/J,~>
JH4X/J,~>
JH4X/J,~>
JH4X/J,~>
JH4X/J,~>
JH4X/J,~>
JH4X/J,~>
JH4X/J,~>
JH4X/J,~>
JH4X/J,~>
JH4X/J,~>
JH4X/J,~>
JH4X/J,~>
JH4X/J,~>
JH4X/J,~>
JH4X/J,~>
JH4X/J,~>
JH4X/J,~>
JH4X/J,~>
JH4X/J,~>
JH4X/J,~>
JH4X/J,~>
JH4X/J,~>
JH4X/J,~>
JH4X/J,~>
JH4X/J,~>
JH4X/J,~>
JH4X/J,~>
JH4X/J,~>
JH4X/J,~>
JH4X/J,~>
JH4X/J,~>
JH4X/J,~>
JH4X/J,~>
JH4X/J,~>
JH4X/J,~>
JH4X/J,~>
JH4X/J,~>
JH4X/J,~>
JH4X/J,~>
JH4X/J,~>
JH4X/J,~>
JH4X/J,~>
JH4X/J,~>
JH4X/J,~>
JH4X/J,~>
JH4X/J,~>
JH4X/J,~>
JH4X/J,~>
JH4X/J,~>
JH4X/J,~>
JH4X/J,~>
JH4X/J,~>
JH4X/J,~>
JH4X/J,~>
JH4X/J,~>
JH4X/J,~>
%%EndData
showpage
%%Trailer
end
%%EOF
