%!PS-Adobe-3.0 EPSF-3.0
%%Creator: GIMP PostScript file plugin V 1.17 by Peter Kirchgessner
%%Title: gt_campus_813.eps
%%CreationDate: Mon Feb  1 09:45:05 2016
%%DocumentData: Clean7Bit
%%LanguageLevel: 2
%%Pages: 1
%%BoundingBox: 14 14 175 143
%%EndComments
%%BeginProlog
% Use own dictionary to avoid conflicts
10 dict begin
%%EndProlog
%%Page: 1 1
% Translate for offset
14.173228346456694 14.173228346456694 translate
% Translate to begin of first scanline
0 127.9899212598425 translate
159.98740157480313 -127.9899212598425 scale
% Image geometry
160 128 8
% Transformation matrix
[ 160 0 0 128 0 0 ]
% Strings to hold RGB-samples per scanline
/rstr 160 string def
/gstr 160 string def
/bstr 160 string def
{currentfile /ASCII85Decode filter /RunLengthDecode filter rstr readstring pop}
{currentfile /ASCII85Decode filter /RunLengthDecode filter gstr readstring pop}
{currentfile /ASCII85Decode filter /RunLengthDecode filter bstr readstring pop}
true 3
%%BeginData:         4670 ASCII Bytes
colorimage
JH4X/J,~>
JH4X/J,~>
JH4X/J,~>
JH4X/J,~>
JH4X/J,~>
JH4X/J,~>
JH4X/J,~>
JH4X/J,~>
JH4X/J,~>
JH4X/J,~>
JH4X/J,~>
JH4X/J,~>
JH4X/J,~>
JH4X/J,~>
JH4X/J,~>
JH4X/J,~>
JH4X/J,~>
JH4X/J,~>
JH4X/J,~>
JH4X/J,~>
JH4X/J,~>
JH4X/J,~>
JH4X/J,~>
JH4X/J,~>
JH4X/J,~>
JH4X/J,~>
JH4X/J,~>
JH4X/J,~>
JH4X/J,~>
JH4X/J,~>
JH4X/J,~>
JH4X/J,~>
JH4X/J,~>
JH4X/J,~>
JH4X/J,~>
JH4X/J,~>
JH4X/J,~>
JH4X/J,~>
JH4X/J,~>
JH4X/J,~>
JH4X/J,~>
JH4X/J,~>
JH4X/J,~>
JH4X/J,~>
JH4X/J,~>
JH4X/J,~>
JH4X/J,~>
JH4X/J,~>
JH4X/J,~>
JH4X/J,~>
JH4X/J,~>
JH4X/J,~>
JH4X/J,~>
JH4X/J,~>
JH4X/J,~>
JH4X/J,~>
JH4X/J,~>
JH4X/J,~>
JH4X/J,~>
JH4X/J,~>
JH4X/J,~>
JH4X/J,~>
JH4X/J,~>
JH4X/J,~>
JH4X/J,~>
JH4X/J,~>
JH4X/J,~>
JH4X/J,~>
JH4X/J,~>
JH4X/J,~>
JH4X/J,~>
JH4X/J,~>
JH4X/J,~>
JH4X/J,~>
JH4X/J,~>
JH4X/J,~>
JH4X/J,~>
JH4X/J,~>
JH4X/J,~>
JH4X/J,~>
JH4X/J,~>
JH4X/J,~>
JH4X/J,~>
JH4X/J,~>
JH4X/J,~>
JH4X/J,~>
JH4X/J,~>
JH4X/J,~>
JH4X/J,~>
JH4X/J,~>
JH4X/J,~>
JH4X/J,~>
JH4X/J,~>
JH4X/J,~>
JH4X/J,~>
JH4X/J,~>
JH4X/J,~>
JH4X/J,~>
JH4X/J,~>
JH4X/J,~>
JH4X/J,~>
JH4X/J,~>
JH4X/J,~>
JH4X/J,~>
JH4X/J,~>
JH4X/J,~>
JH4X/J,~>
JH4X/J,~>
JH4X/J,~>
JH4X/J,~>
JH4X/J,~>
JH4X/J,~>
JH4X/J,~>
JH4X/J,~>
JH4X/J,~>
JH4X/J,~>
JH4X/J,~>
JH4X/J,~>
JH4X/J,~>
JH4X/J,~>
JH4X/J,~>
JH4X/J,~>
JH4X/J,~>
JH4X/J,~>
JH4X/J,~>
JH4X/J,~>
JH4X/J,~>
JH4X/J,~>
JH4X/J,~>
JH4X/J,~>
JH4X/J,~>
JH4X/J,~>
JH4X/J,~>
JH4X/J,~>
JH4X/J,~>
JH4X/J,~>
JH4X/J,~>
JH4X/J,~>
JH4X/J,~>
JH4X/J,~>
JH4X/J,~>
JH4X/J,~>
JH4X/J,~>
JH4X/J,~>
JH4X/J,~>
JH4X/J,~>
JH4X/J,~>
JH4X/J,~>
JH4X/J,~>
JH4X/J,~>
JH4X/J,~>
JH4X/J,~>
JH4X/J,~>
JH4X/J,~>
JH4X/J,~>
JH4X/J,~>
JH4X/J,~>
JH4X/J,~>
JH4X/J,~>
JH4X/J,~>
JH4X/J,~>
JH4X/J,~>
JH4X/J,~>
JH4X/J,~>
JH4X/J,~>
JH4X/J,~>
JH4X/J,~>
JH4X/J,~>
JH4X/J,~>
JH4X/J,~>
JH4X/J,~>
JH4X/J,~>
JH4X/J,~>
JH4X/J,~>
JH4X/J,~>
JH4X/J,~>
JH4X/J,~>
JH4X/J,~>
JH4X/J,~>
JH4X/J,~>
JH4X/J,~>
JH4X/J,~>
JH4X/J,~>
JH4X/J,~>
JH4X/J,~>
JH4X/J,~>
JH4X/J,~>
JH4X/J,~>
JH4X/J,~>
JH4X/J,~>
JH4X/J,~>
JH4X/J,~>
JH4X/J,~>
JH4X/J,~>
JH4X/J,~>
JH4X/J,~>
JH4X/J,~>
JH4X/J,~>
JH4X/J,~>
JH4X/J,~>
JH4X/J,~>
JH4X/J,~>
JH4X/J,~>
JH4X/J,~>
JH4X/J,~>
JH4X/J,~>
JH4X/J,~>
JH4X/J,~>
JH4X/J,~>
JH4X/J,~>
JH4X/J,~>
JH4X/J,~>
JH4X/J,~>
JH4X/J,~>
JH4X/J,~>
JH4X/J,~>
JH4X/J,~>
JH4X/J,~>
JH4X/J,~>
JH4X/J,~>
JH4X/J,~>
JH4X/J,~>
JH50>o)F4~>
JH50>o)F4~>
JH50>o)F4~>
JH53?nc++~>
JH53?nc++~>
JH53?nc++~>
])_m2\cD7"J,~>
])_m2\cD7"J,~>
])_m2\cD7"J,~>
]E%s2])_="J,~>
]E%s2])_="J,~>
]E%s2])_="J,~>
]E%p1]`@L#J,~>
]E%p1]`@L#J,~>
]E%p1]`@L#J,~>
]E%p1^&[R#J,~>
]E%p1^&[R#J,~>
]E%p1^&[R#J,~>
]`@s0^]<a$J,~>
]`@s0^]<a$J,~>
]`@s0^]<a$J,~>
^&\!/_>rp%J,~>
^&\!/_>rp%J,~>
^&\!/_>rp%J,~>
^&[s._uT*&J,~>
^&[s._uT*&J,~>
^&[s._uT*&J,~>
^B"$.`;o0&J,~>
^B"$.`;o0&J,~>
^B"$.`;o0&J,~>
^B"$.`W56&J,~>
^B"$.`W56&J,~>
^B"$.`W56&J,~>
^B"$.`rP<&J,~>
^B"$.`rP<&J,~>
^B"$.`rP<&J,~>
^B"$.b5gT&J,~>
^B"$.b5gT&J,~>
^B"$.b5gT&J,~>
^&[s.aoLN&J,~>
^&[s.aoLN&J,~>
^&[s.aoLN&J,~>
]`@m.bQ-Z&J,~>
]`@m.bQ-Z&J,~>
]`@m.bQ-Z&J,~>
`W6&=q>g?kc2cf&J,~>
`W6&=q>g?kc2cf&J,~>
`W6&=q>g?kc2cf&J,~>
`W6&=q>g?kcN)l&J,~>
`W6&=q>g?kcN)l&J,~>
`W6&=q>g?kcN)l&J,~>
`rQ)<qZ-KmciDo%J,~>
`rQ)<qZ-KmciDo%J,~>
`rQ)<qZ-KmciDo%J,~>
a8l,;quHTnd/_u%J,~>
a8l,;quHTnd/_u%J,~>
a8l,;quHTnd/_u%J,~>
a8l,;quHTnd/_u%J,~>
a8l,;quHTnd/_u%J,~>
a8l,;quHTnd/_u%J,~>
a8l,;quHTnd/_u%J,~>
a8l,;quHTnd/_u%J,~>
a8l,;quHTnd/_u%J,~>
a8l,;quHWociDl$J,~>
a8l,;quHWociDl$J,~>
a8l,;quHWociDl$J,~>
a8l,;quHWociDl$J,~>
a8l,;quHWociDl$J,~>
a8l,;quHWociDl$J,~>
`rQ&;quHZpcN)c#J,~>
`rQ&;quHZpcN)c#J,~>
`rQ&;quHZpcN)c#J,~>
`W5u;quHZpcN)c#J,~>
`W5u;quHZpcN)c#J,~>
`W5u;quHZpcN)c#J,~>
`W5u;quHZpcN)c#J,~>
`W5u;quHZpcN)c#J,~>
`W5u;quHZpcN)c#J,~>
`W5u;quHZpcN)c#J,~>
`W5u;quHZpcN)c#J,~>
`W5u;quHZpcN)c#J,~>
`W5u;quHZpcN)c#J,~>
`W5u;quHZpcN)c#J,~>
`W5u;quHZpcN)c#J,~>
`W6#<qZ-QocN)c#J,~>
`W6#<qZ-QocN)c#J,~>
`W6#<qZ-QocN)c#J,~>
`W6#<qZ-QocN)c#J,~>
`W6#<qZ-QocN)c#J,~>
`W6#<qZ-QocN)c#J,~>
`W6#<qZ-QocN*hAmJut\J,~>
`W6#<qZ-QocN*hAmJut\J,~>
`W6#<qZ-QocN*hAmJut\J,~>
]`A!1cN*kBli?k]!<E.M~>
]`A!1cN*kBli?k]!<E.M~>
]`A!1cN*kBli?k]!<E.M~>
]`A!1cN*kBli?k]rr@Q~>
]`A!1cN*kBli?k]rr@Q~>
]`A!1cN*kBli?k]rr@Q~>
K`M&NlN$e]rr@Q~>
K`M&NlN$e]rr@Q~>
K`M&NlN$e]rr@Q~>
K`M&NklC\^rW%H~>
K`M&NklC\^rW%H~>
K`M&NklC\^rW%H~>
JH4X/J,~>
JH4X/J,~>
JH4X/J,~>
JH4X/J,~>
JH4X/J,~>
JH4X/J,~>
JH4X/J,~>
JH4X/J,~>
JH4X/J,~>
JH4X/J,~>
JH4X/J,~>
JH4X/J,~>
JH4X/J,~>
JH4X/J,~>
JH4X/J,~>
JH4X/J,~>
JH4X/J,~>
JH4X/J,~>
JH4X/J,~>
JH4X/J,~>
JH4X/J,~>
JH4X/J,~>
JH4X/J,~>
JH4X/J,~>
JH4X/J,~>
JH4X/J,~>
JH4X/J,~>
JH4X/J,~>
JH4X/J,~>
JH4X/J,~>
JH4X/J,~>
JH4X/J,~>
JH4X/J,~>
JH4X/J,~>
JH4X/J,~>
JH4X/J,~>
JH4X/J,~>
JH4X/J,~>
JH4X/J,~>
JH4X/J,~>
JH4X/J,~>
JH4X/J,~>
JH4X/J,~>
JH4X/J,~>
JH4X/J,~>
JH4X/J,~>
JH4X/J,~>
JH4X/J,~>
JH4X/J,~>
JH4X/J,~>
JH4X/J,~>
JH4X/J,~>
JH4X/J,~>
JH4X/J,~>
JH4X/J,~>
JH4X/J,~>
JH4X/J,~>
%%EndData
showpage
%%Trailer
end
%%EOF
